<?xml version="1.0" encoding="UTF-8"?>
<svg width="100px" height="100px" viewBox="0 0 542 542" version="1.1" xmlns="http://www.w3.org/2000/svg" xmlns:xlink="http://www.w3.org/1999/xlink">
    <!-- Generator: Sketch 49.2 (51160) - http://www.bohemiancoding.com/sketch -->
    <title>Sheep Circle</title>
    <desc>Created with Sketch.</desc>
    <defs>
        <path d="M150.176951,11.3250621 C158.137509,4.28097015 168.635772,-7.10542736e-15 180.141844,-7.10542736e-15 C205.014242,-7.10542736e-15 225.177305,20.0042984 225.177305,44.6808511 C250.049703,44.6808511 270.212766,64.6851495 270.212766,89.3617021 C270.212766,114.038255 250.049703,134.042553 225.177305,134.042553 L45.035461,134.042553 C20.1630627,134.042553 0,114.038255 0,89.3617021 C0,64.6851495 20.1630627,44.6808511 45.035461,44.6808511 L48.8793661,44.6808511 C58.1529874,18.6499576 83.175569,-7.10542736e-15 112.588652,-7.10542736e-15 C126.501031,-7.10542736e-15 139.431127,4.17253011 150.176951,11.3250621 Z" id="path-1"></path>
    </defs>
    <g id="commons.host" stroke="none" stroke-width="1" fill="none" fill-rule="evenodd">
        <g id="Sheep-Circle">
            <circle id="Oval" stroke="#FFFFFF" stroke-width="30" fill="#000000" cx="271" cy="271" r="256"></circle>
            <g id="Head" transform="translate(72.000000, 95.000000)">
                <ellipse id="Oval-3" fill="#FFFFFF" cx="197.93617" cy="180.212766" rx="135.106383" ry="161.702128"></ellipse>
                <ellipse id="Oval-3" fill="#FFFFFF" transform="translate(347.936170, 161.063830) rotate(135.000000) translate(-347.936170, -161.063830) " cx="347.93617" cy="161.06383" rx="21.2765957" ry="48.9361702"></ellipse>
                <ellipse id="Oval-3" fill="#FFFFFF" transform="translate(50.063830, 161.063830) scale(-1, 1) rotate(135.000000) translate(-50.063830, -161.063830) " cx="50.0638298" cy="161.06383" rx="21.2765957" ry="48.9361702"></ellipse>
                <g id="Cloud-White" transform="translate(62.829787, 0.000000)">
                    <g id="Combined-Shape">
                        <use fill="#FFFFFF" fill-rule="evenodd" xlink:href="#path-1"></use>
                        <path stroke="#000000" stroke-width="20" d="M149.487022,-0.739103412 C158.438912,-6.71481732 169.043022,-10 180.141844,-10 C207.35456,-10 229.977237,9.63169642 234.395766,35.4447842 C260.390398,39.801291 280.212766,62.2688865 280.212766,89.3617021 C280.212766,119.578876 255.554932,144.042553 225.177305,144.042553 L45.035461,144.042553 C14.6578338,144.042553 -10,119.578876 -10,89.3617021 C-10,60.1078491 13.1107157,36.2464977 42.148207,34.7548342 C54.6402014,7.85507509 81.9119711,-10 112.588652,-10 C125.666287,-10 138.278735,-6.77146528 149.487022,-0.739103412 Z"></path>
                    </g>
                </g>
                <ellipse id="Oval-3" fill="#000000" cx="156.446809" cy="199.361702" rx="21.2765957" ry="25.5319149"></ellipse>
                <ellipse id="Oval-3" fill="#000000" cx="252.191489" cy="199.361702" rx="21.2765957" ry="25.5319149"></ellipse>
            </g>
        </g>
    </g>
</svg>